@startuml sequence for operations in administration

skinparam BackgroundColor #D8D8D8


header ""

Title "Admin operations"

actor Admin

box "Application" #F7F2E0

participant System #FFBBBB
database Database #DarkSalmon

end box


autonumber
Admin -> System: Calls the administration page
activate System #FFBBBB
System -> Admin: Returns the connection form
deactivate System

Admin -> System: Fills & validates the connection form
activate System #FFBBBB

autonumber 3.1

alt#Gold #LightBlue connection sucess

    System ->o Database: Authentication request
    activate Database #DarkSalmon
        Database -> System: Authentication response
    deactivate Database
    System -> Admin: Returns the administration homepage

    group #Gold Moderate user
        Admin -> System: Lists all the users
        activate System #F6CED8
            System ->o Database: Request users Lists
            activate Database #DarkSalmon
            Database -> System: Response users list
            deactivate Database
            System -> Admin: Returns array with status (moderate: <color: blue>null</color>, <color:yellow>warning</color>, <color:red>banned</color>)
            Admin -> System: Sets the status with checkbox
            System -> Admin: Pop up the modification
            autonumber stop
        deactivate System
    end 

    group #Gold Moderate message/topic
        autonumber 3.4
        System ->o Database: Request see if any messages needs to be moderated
        
        activate Database #DarkSalmon
            Database -> System: Response array with the list of messages (can be null)
        deactivate Database

        activate System #F6CED8

            System -> Admin: Post(s)/topic(s) list
            Admin -> System: Post(s)/topic(s) selection
            Admin -> System: Select topic/message to be moderated
            System -> Admin: Display the entire message (in memory since <b>3.4</b>)
            Admin -> System: Moderate: <color: blue>null</color>, <color:yellow>warning</color>, <color:red>banned</color>
            System ->o Database: Request set status

            activate Database #DarkSalmon
            Database -> System: Response pop up the status
            deactivate Database

        deactivate System
    end


    autonumber stop

else #pink connection failure
    autonumber 3.1
    System ->x Database: Authentication request
    activate Database #DarkSalmon
    Database -> System: Authentication response
    deactivate Database
    System -> Admin: Back to step <b>2</b> & Pop up a wrong credencials message
    autonumber stop
end
Admin -> System: Close the administration page
deactivate System

autonumber

footer "sequence 1/2"

@enduml