@startuml User operations

skinparam BackgroundColor #D8D8D8


header "A user is registered in the System"

Title "User operations"

actor User

box "Application" #F7F2E0

participant System #FFBBBB
database Database #DarkSalmon

end box

User -> System: Fills in the login form
activate System #FFBBBB

    System ->o Database: Request: authentification
        activate Database #DarkSalmon
        Database -> System: Response: authentification
        deactivate Database
        System -> User: Pop up the connection message

        group #Gold "Read & reply to a post"

            User -> System : Access the categories

            activate System #F6CED8

            System ->o Database: Request: categories
                activate Database #DarkSalmon
                    Database -> System: Response: categories
                deactivate Database
            System -> User: Lists the categories
            User -> System: Selects a category
            System ->o Database: Request: categories posts
                activate Database #DarkSalmon
                    Database -> System: Response: categories posts
                deactivate Database
            System -> User: Lists the posts in category
            User -> System: Selects a post

            System ->o Database:Request: post details
            activate Database #DarkSalmon
                Database -> System: Response: post details
            deactivate Database
            System -> User: Shows post
            
            alt #Gold Answers a post

            User -> System: Answers a post
            System ->o Database: Request: save answer
                activate Database #DarkSalmon
                Database -> System: Response: save answer
                deactivate Database
            System -> User: pop up recorded response

            deactivate System

            else #A9F5A9 Report a message

            User -> System: Report the message
            System ->o Database: Request: message reported
            activate Database #Darksalmon
                Database -> System: Response: message reported
            deactivate Database
            System -> User: Pop up the action
            
            end

            group #SkyBlue Delete one of his post

            User -> System: Access to his posts

            activate System #F6CED8

            System ->o Database: Request: access to list of his  posts
            activate Database #Darksalmon
                Database -> System: Response: list of his posts
            deactivate Database
            System -> User: Displays the list of its messages
            User -> System: Delete post

            System ->o Database: Request: delete post

            activate Database #Darksalmon
                Database -> System: Response: delete post
            deactivate Database
            System -> User: Pop up deleted message
            deactivate System

            end
        User -> System: Closes the application

        
    deactivate System


footer "sequence 2/2"

@enduml